Main Campus Drive @ Partners Way,35.775071,-78.672950
Main Campus Drive @ Varsity Drive,35.773577,-78.676957
College of Textiles,35.770159,-78.677822
Partners Way @ Main Campus Drive,35.768701,-78.677978
Hunt Library,35.769448,-78.676759
Engineering Building I,35.771664,-78.674991
Varsity Drive @ Partners Way,35.772508,-78.674997
Partners Way Parking Deck,35.773521,-78.674123
Oval Drive @ Main Campus Drive,35.774613,-78.671786
Engineering Building II,35.771945,-78.673862
Engineering Building III,35.771158,-78.673957
The Oval,35.770003,-78.674859
Perimeter Lot,35.774570,-78.670298
Oval Drive @ Initiative Way,35.775247,-78.671344
Centennial Parkway @ Oval Drive,35.776071,-78.670733
Centennial Parkway @ Nazareth Street,35.776695,-78.672802
Avent Ferry Road @ Centennial Parkway,35.777135,-78.678409
Avent Ferry Road @ Varsity Drive,35.775513,-78.680809
Western Boulevard @ Nazareth Street,35.780028,-78.672986
Western Boulevard @ Avent Ferry Road,35.780764,-78.675440
Western Boulevard @ Pullen Road,35.779544,-78.667230
Pullen Road @ Cates Avenue,35.781323,-78.666887
Pullen Road @ Dunn Avenue,35.782828,-78.665431
Dunn Avenue @ Jensen Drive,35.783352,-78.666915
Coliseum Deck,35.782922,-78.667160
Cates Avenue @ Jensen Drive,35.781817,-78.667714
Dunn Avenue @ Jeter Drive,35.783860,-78.668340
Cates Avenue @ Jeter Drive,35.782361,-78.669187
Coliseum Pay Lot,35.781906,-78.667945
Cates Avenue @ Morrill Drive,35.782964,-78.670818
Carmichael Gym,35.782277,-78.671251