160 160 5 5
//Top row
0 0 true 0 0 0
1 0 true 0 0 0
2 0 true 0 0 0
3 0 true 0 0 0
4 0 true 0 0 0
5 0 true 0 0 0
6 0 true 0 0 0
7 0 true 0 0 0
8 0 true 0 0 0
9 0 true 0 0 0
10 0 true 0 0 0
11 0 true 0 0 0
12 0 true 0 0 0
13 0 true 0 0 0
14 0 true 0 0 0
15 0 true 0 0 0
16 0 true 0 0 0
17 0 true 0 0 0
18 0 true 0 0 0
19 0 true 0 0 0
20 0 true 0 0 0
21 0 true 0 0 0
22 0 true 0 0 0
23 0 true 0 0 0
24 0 true 0 0 0
25 0 true 0 0 0
26 0 true 0 0 0
27 0 true 0 0 0
28 0 true 0 0 0
29 0 true 0 0 0
30 0 true 0 0 0
31 0 true 0 0 0
32 0 true 0 0 0
33 0 true 0 0 0
34 0 true 0 0 0
35 0 true 0 0 0
36 0 true 0 0 0
37 0 true 0 0 0
38 0 true 0 0 0
39 0 true 0 0 0
40 0 true 0 0 0
41 0 true 0 0 0
42 0 true 0 0 0
43 0 true 0 0 0
44 0 true 0 0 0
45 0 true 0 0 0
46 0 true 0 0 0
47 0 true 0 0 0
48 0 true 0 0 0
49 0 true 0 0 0
50 0 true 0 0 0
51 0 true 0 0 0
52 0 true 0 0 0
53 0 true 0 0 0
54 0 true 0 0 0
55 0 true 0 0 0
56 0 true 0 0 0
57 0 true 0 0 0
58 0 true 0 0 0
59 0 true 0 0 0
60 0 true 0 0 0
61 0 true 0 0 0
62 0 true 0 0 0
63 0 true 0 0 0
64 0 true 0 0 0
65 0 true 0 0 0
66 0 true 0 0 0
67 0 true 0 0 0
68 0 true 0 0 0
69 0 true 0 0 0
70 0 true 0 0 0
71 0 true 0 0 0
72 0 true 0 0 0
73 0 true 0 0 0
74 0 true 0 0 0
75 0 true 0 0 0
76 0 true 0 0 0
77 0 true 0 0 0
78 0 true 0 0 0
79 0 true 0 0 0
80 0 true 0 0 0
81 0 true 0 0 0
82 0 true 0 0 0
83 0 true 0 0 0
84 0 true 0 0 0
85 0 true 0 0 0
86 0 true 0 0 0
87 0 true 0 0 0
88 0 true 0 0 0
89 0 true 0 0 0
90 0 true 0 0 0
91 0 true 0 0 0
92 0 true 0 0 0
93 0 true 0 0 0
94 0 true 0 0 0
95 0 true 0 0 0
96 0 true 0 0 0
97 0 true 0 0 0
98 0 true 0 0 0
99 0 true 0 0 0
100 0 true 0 0 0
101 0 true 0 0 0
102 0 true 0 0 0
103 0 true 0 0 0
104 0 true 0 0 0
105 0 true 0 0 0
106 0 true 0 0 0
107 0 true 0 0 0
108 0 true 0 0 0
109 0 true 0 0 0
110 0 true 0 0 0
111 0 true 0 0 0
112 0 true 0 0 0
113 0 true 0 0 0
114 0 true 0 0 0
115 0 true 0 0 0
116 0 true 0 0 0
117 0 true 0 0 0
118 0 true 0 0 0
119 0 true 0 0 0
120 0 true 0 0 0
121 0 true 0 0 0
122 0 true 0 0 0
123 0 true 0 0 0
124 0 true 0 0 0
125 0 true 0 0 0
126 0 true 0 0 0
127 0 true 0 0 0
128 0 true 0 0 0
129 0 true 0 0 0
130 0 true 0 0 0
131 0 true 0 0 0
132 0 true 0 0 0
133 0 true 0 0 0
134 0 true 0 0 0
135 0 true 0 0 0
136 0 true 0 0 0
137 0 true 0 0 0
138 0 true 0 0 0
139 0 true 0 0 0
140 0 true 0 0 0
141 0 true 0 0 0
142 0 true 0 0 0
143 0 true 0 0 0
144 0 true 0 0 0
145 0 true 0 0 0
146 0 true 0 0 0
147 0 true 0 0 0
148 0 true 0 0 0
149 0 true 0 0 0
150 0 true 0 0 0
151 0 true 0 0 0
152 0 true 0 0 0
153 0 true 0 0 0
154 0 true 0 0 0
155 0 true 0 0 0
156 0 true 0 0 0
157 0 true 0 0 0
158 0 true 0 0 0
159 0 true 0 0 0
//Bottom row
1 159 true 0 0 0
2 159 true 0 0 0
3 159 true 0 0 0
4 159 true 0 0 0
5 159 true 0 0 0
6 159 true 0 0 0
7 159 true 0 0 0
8 159 true 0 0 0
9 159 true 0 0 0
10 159 true 0 0 0
11 159 true 0 0 0
12 159 true 0 0 0
13 159 true 0 0 0
14 159 true 0 0 0
15 159 true 0 0 0
16 159 true 0 0 0
17 159 true 0 0 0
18 159 true 0 0 0
19 159 true 0 0 0
20 159 true 0 0 0
21 159 true 0 0 0
22 159 true 0 0 0
23 159 true 0 0 0
24 159 true 0 0 0
25 159 true 0 0 0
26 159 true 0 0 0
27 159 true 0 0 0
28 159 true 0 0 0
29 159 true 0 0 0
30 159 true 0 0 0
31 159 true 0 0 0
32 159 true 0 0 0
33 159 true 0 0 0
34 159 true 0 0 0
35 159 true 0 0 0
36 159 true 0 0 0
37 159 true 0 0 0
38 159 true 0 0 0
39 159 true 0 0 0
40 159 true 0 0 0
41 159 true 0 0 0
42 159 true 0 0 0
43 159 true 0 0 0
44 159 true 0 0 0
45 159 true 0 0 0
46 159 true 0 0 0
47 159 true 0 0 0
48 159 true 0 0 0
49 159 true 0 0 0
50 159 true 0 0 0
51 159 true 0 0 0
52 159 true 0 0 0
53 159 true 0 0 0
54 159 true 0 0 0
55 159 true 0 0 0
56 159 true 0 0 0
57 159 true 0 0 0
58 159 true 0 0 0
59 159 true 0 0 0
60 159 true 0 0 0
61 159 true 0 0 0
62 159 true 0 0 0
63 159 true 0 0 0
64 159 true 0 0 0
65 159 true 0 0 0
66 159 true 0 0 0
67 159 true 0 0 0
68 159 true 0 0 0
69 159 true 0 0 0
70 159 true 0 0 0
71 159 true 0 0 0
72 159 true 0 0 0
73 159 true 0 0 0
74 159 true 0 0 0
75 159 true 0 0 0
76 159 true 0 0 0
77 159 true 0 0 0
78 159 true 0 0 0
79 159 true 0 0 0
80 159 true 0 0 0
81 159 true 0 0 0
82 159 true 0 0 0
83 159 true 0 0 0
84 159 true 0 0 0
85 159 true 0 0 0
86 159 true 0 0 0
87 159 true 0 0 0
88 159 true 0 0 0
89 159 true 0 0 0
90 159 true 0 0 0
91 159 true 0 0 0
92 159 true 0 0 0
93 159 true 0 0 0
94 159 true 0 0 0
95 159 true 0 0 0
96 159 true 0 0 0
97 159 true 0 0 0
98 159 true 0 0 0
99 159 true 0 0 0
100 159 true 0 0 0
101 159 true 0 0 0
102 159 true 0 0 0
103 159 true 0 0 0
104 159 true 0 0 0
105 159 true 0 0 0
106 159 true 0 0 0
107 159 true 0 0 0
108 159 true 0 0 0
109 159 true 0 0 0
110 159 true 0 0 0
111 159 true 0 0 0
112 159 true 0 0 0
113 159 true 0 0 0
114 159 true 0 0 0
115 159 true 0 0 0
116 159 true 0 0 0
117 159 true 0 0 0
118 159 true 0 0 0
119 159 true 0 0 0
120 159 true 0 0 0
121 159 true 0 0 0
122 159 true 0 0 0
123 159 true 0 0 0
124 159 true 0 0 0
125 159 true 0 0 0
126 159 true 0 0 0
127 159 true 0 0 0
128 159 true 0 0 0
129 159 true 0 0 0
130 159 true 0 0 0
131 159 true 0 0 0
132 159 true 0 0 0
133 159 true 0 0 0
134 159 true 0 0 0
135 159 true 0 0 0
136 159 true 0 0 0
137 159 true 0 0 0
138 159 true 0 0 0
139 159 true 0 0 0
140 159 true 0 0 0
141 159 true 0 0 0
142 159 true 0 0 0
143 159 true 0 0 0
144 159 true 0 0 0
145 159 true 0 0 0
146 159 true 0 0 0
147 159 true 0 0 0
148 159 true 0 0 0
149 159 true 0 0 0
150 159 true 0 0 0
151 159 true 0 0 0
152 159 true 0 0 0
153 159 true 0 0 0
154 159 true 0 0 0
155 159 true 0 0 0
156 159 true 0 0 0
157 159 true 0 0 0
158 159 true 0 0 0
159 159 true 0 0 0
//Left side
0 1 true 0 0 0
0 2 true 0 0 0
0 3 true 0 0 0
0 4 true 0 0 0
0 5 true 0 0 0
0 6 true 0 0 0
0 7 true 0 0 0
0 8 true 0 0 0
0 9 true 0 0 0
0 10 true 0 0 0
0 11 true 0 0 0
0 12 true 0 0 0
0 13 true 0 0 0
0 14 true 0 0 0
0 15 true 0 0 0
0 16 true 0 0 0
0 17 true 0 0 0
0 18 true 0 0 0
0 19 true 0 0 0
0 20 true 0 0 0
0 21 true 0 0 0
0 22 true 0 0 0
0 23 true 0 0 0
0 24 true 0 0 0
0 25 true 0 0 0
0 26 true 0 0 0
0 27 true 0 0 0
0 28 true 0 0 0
0 29 true 0 0 0
0 30 true 0 0 0
0 31 true 0 0 0
0 32 true 0 0 0
0 33 true 0 0 0
0 34 true 0 0 0
0 35 true 0 0 0
0 36 true 0 0 0
0 37 true 0 0 0
0 38 true 0 0 0
0 39 true 0 0 0
0 40 true 0 0 0
0 41 true 0 0 0
0 42 true 0 0 0
0 43 true 0 0 0
0 44 true 0 0 0
0 45 true 0 0 0
0 46 true 0 0 0
0 47 true 0 0 0
0 48 true 0 0 0
0 49 true 0 0 0
0 50 true 0 0 0
0 51 true 0 0 0
0 52 true 0 0 0
0 53 true 0 0 0
0 54 true 0 0 0
0 55 true 0 0 0
0 56 true 0 0 0
0 57 true 0 0 0
0 58 true 0 0 0
0 59 true 0 0 0
0 60 true 0 0 0
0 61 true 0 0 0
0 62 true 0 0 0
0 63 true 0 0 0
0 64 true 0 0 0
0 65 true 0 0 0
0 66 true 0 0 0
0 67 true 0 0 0
0 68 true 0 0 0
0 69 true 0 0 0
0 70 true 0 0 0
0 71 true 0 0 0
0 72 true 0 0 0
0 73 true 0 0 0
0 74 true 0 0 0
0 75 true 0 0 0
0 76 true 0 0 0
0 77 true 0 0 0
0 78 true 0 0 0
0 79 true 0 0 0
0 80 true 0 0 0
0 81 true 0 0 0
0 82 true 0 0 0
0 83 true 0 0 0
0 84 true 0 0 0
0 85 true 0 0 0
0 86 true 0 0 0
0 87 true 0 0 0
0 88 true 0 0 0
0 89 true 0 0 0
0 90 true 0 0 0
0 91 true 0 0 0
0 92 true 0 0 0
0 93 true 0 0 0
0 94 true 0 0 0
0 95 true 0 0 0
0 96 true 0 0 0
0 97 true 0 0 0
0 98 true 0 0 0
0 99 true 0 0 0
0 100 true 0 0 0
0 101 true 0 0 0
0 102 true 0 0 0
0 103 true 0 0 0
0 104 true 0 0 0
0 105 true 0 0 0
0 106 true 0 0 0
0 107 true 0 0 0
0 108 true 0 0 0
0 109 true 0 0 0
0 110 true 0 0 0
0 111 true 0 0 0
0 112 true 0 0 0
0 113 true 0 0 0
0 114 true 0 0 0
0 115 true 0 0 0
0 116 true 0 0 0
0 117 true 0 0 0
0 118 true 0 0 0
0 119 true 0 0 0
0 120 true 0 0 0
0 121 true 0 0 0
0 122 true 0 0 0
0 123 true 0 0 0
0 124 true 0 0 0
0 125 true 0 0 0
0 126 true 0 0 0
0 127 true 0 0 0
0 128 true 0 0 0
0 129 true 0 0 0
0 130 true 0 0 0
0 131 true 0 0 0
0 132 true 0 0 0
0 133 true 0 0 0
0 134 true 0 0 0
0 135 true 0 0 0
0 136 true 0 0 0
0 137 true 0 0 0
0 138 true 0 0 0
0 139 true 0 0 0
0 140 true 0 0 0
0 141 true 0 0 0
0 142 true 0 0 0
0 143 true 0 0 0
0 144 true 0 0 0
0 145 true 0 0 0
0 146 true 0 0 0
0 147 true 0 0 0
0 148 true 0 0 0
0 149 true 0 0 0
0 150 true 0 0 0
0 151 true 0 0 0
0 152 true 0 0 0
0 153 true 0 0 0
0 154 true 0 0 0
0 155 true 0 0 0
0 156 true 0 0 0
0 157 true 0 0 0
0 158 true 0 0 0
0 159 true 0 0 0
//Right side
159 1 true 0 0 0
159 2 true 0 0 0
159 3 true 0 0 0
159 4 true 0 0 0
159 5 true 0 0 0
159 6 true 0 0 0
159 7 true 0 0 0
159 8 true 0 0 0
159 9 true 0 0 0
159 10 true 0 0 0
159 11 true 0 0 0
159 12 true 0 0 0
159 13 true 0 0 0
159 14 true 0 0 0
159 15 true 0 0 0
159 16 true 0 0 0
159 17 true 0 0 0
159 18 true 0 0 0
159 19 true 0 0 0
159 20 true 0 0 0
159 21 true 0 0 0
159 22 true 0 0 0
159 23 true 0 0 0
159 24 true 0 0 0
159 25 true 0 0 0
159 26 true 0 0 0
159 27 true 0 0 0
159 28 true 0 0 0
159 29 true 0 0 0
159 30 true 0 0 0
159 31 true 0 0 0
159 32 true 0 0 0
159 33 true 0 0 0
159 34 true 0 0 0
159 35 true 0 0 0
159 36 true 0 0 0
159 37 true 0 0 0
159 38 true 0 0 0
159 39 true 0 0 0
159 40 true 0 0 0
159 41 true 0 0 0
159 42 true 0 0 0
159 43 true 0 0 0
159 44 true 0 0 0
159 45 true 0 0 0
159 46 true 0 0 0
159 47 true 0 0 0
159 48 true 0 0 0
159 49 true 0 0 0
159 50 true 0 0 0
159 51 true 0 0 0
159 52 true 0 0 0
159 53 true 0 0 0
159 54 true 0 0 0
159 55 true 0 0 0
159 56 true 0 0 0
159 57 true 0 0 0
159 58 true 0 0 0
159 59 true 0 0 0
159 60 true 0 0 0
159 61 true 0 0 0
159 62 true 0 0 0
159 63 true 0 0 0
159 64 true 0 0 0
159 65 true 0 0 0
159 66 true 0 0 0
159 67 true 0 0 0
159 68 true 0 0 0
159 69 true 0 0 0
159 70 true 0 0 0
159 71 true 0 0 0
159 72 true 0 0 0
159 73 true 0 0 0
159 74 true 0 0 0
159 75 true 0 0 0
159 76 true 0 0 0
159 77 true 0 0 0
159 78 true 0 0 0
159 79 true 0 0 0
159 80 true 0 0 0
159 81 true 0 0 0
159 82 true 0 0 0
159 83 true 0 0 0
159 84 true 0 0 0
159 85 true 0 0 0
159 86 true 0 0 0
159 87 true 0 0 0
159 88 true 0 0 0
159 89 true 0 0 0
159 90 true 0 0 0
159 91 true 0 0 0
159 92 true 0 0 0
159 93 true 0 0 0
159 94 true 0 0 0
159 95 true 0 0 0
159 96 true 0 0 0
159 97 true 0 0 0
159 98 true 0 0 0
159 99 true 0 0 0
159 100 true 0 0 0
159 101 true 0 0 0
159 102 true 0 0 0
159 103 true 0 0 0
159 104 true 0 0 0
159 105 true 0 0 0
159 106 true 0 0 0
159 107 true 0 0 0
159 108 true 0 0 0
159 109 true 0 0 0
159 110 true 0 0 0
159 111 true 0 0 0
159 112 true 0 0 0
159 113 true 0 0 0
159 114 true 0 0 0
159 115 true 0 0 0
159 116 true 0 0 0
159 117 true 0 0 0
159 118 true 0 0 0
159 119 true 0 0 0
159 120 true 0 0 0
159 121 true 0 0 0
159 122 true 0 0 0
159 123 true 0 0 0
159 124 true 0 0 0
159 125 true 0 0 0
159 126 true 0 0 0
159 127 true 0 0 0
159 128 true 0 0 0
159 129 true 0 0 0
159 130 true 0 0 0
159 131 true 0 0 0
159 132 true 0 0 0
159 133 true 0 0 0
159 134 true 0 0 0
159 135 true 0 0 0
159 136 true 0 0 0
159 137 true 0 0 0
159 138 true 0 0 0
159 139 true 0 0 0
159 140 true 0 0 0
159 141 true 0 0 0
159 142 true 0 0 0
159 143 true 0 0 0
159 144 true 0 0 0
159 145 true 0 0 0
159 146 true 0 0 0
159 147 true 0 0 0
159 148 true 0 0 0
159 149 true 0 0 0
159 150 true 0 0 0
159 151 true 0 0 0
159 152 true 0 0 0
159 153 true 0 0 0
159 154 true 0 0 0
159 155 true 0 0 0
159 156 true 0 0 0
159 157 true 0 0 0
159 158 true 0 0 0
//Hallway
//80 1 true 0 0 0
//80 2 true 0 0 0
//80 3 true 0 0 0
//80 4 true 0 0 0
//80 5 true 0 0 0
//80 6 true 0 0 0
//80 7 true 0 0 0
80 8 true 0 0 0
80 9 true 0 0 0
80 10 true 0 0 0
80 11 true 0 0 0
80 12 true 0 0 0
80 13 true 0 0 0
80 14 true 0 0 0
80 15 true 0 0 0
80 16 true 0 0 0
80 17 true 0 0 0
80 18 true 0 0 0
80 19 true 0 0 0
80 20 true 0 0 0
//80 21 true 0 0 0
//80 22 true 0 0 0
//80 23 true 0 0 0
//80 24 true 0 0 0
//80 25 true 0 0 0
//80 26 true 0 0 0
//80 27 true 0 0 0
80 28 true 0 0 0
80 29 true 0 0 0
80 30 true 0 0 0
80 31 true 0 0 0
80 32 true 0 0 0
80 33 true 0 0 0
80 34 true 0 0 0
80 35 true 0 0 0
80 36 true 0 0 0
80 37 true 0 0 0
80 38 true 0 0 0
80 39 true 0 0 0
80 40 true 0 0 0
//80 41 true 0 0 0
//80 42 true 0 0 0
//80 43 true 0 0 0
//80 44 true 0 0 0
//80 45 true 0 0 0
//80 46 true 0 0 0
//80 47 true 0 0 0
80 48 true 0 0 0
80 49 true 0 0 0
80 50 true 0 0 0
80 51 true 0 0 0
80 52 true 0 0 0
80 53 true 0 0 0
80 54 true 0 0 0
80 55 true 0 0 0
80 56 true 0 0 0
80 57 true 0 0 0
80 58 true 0 0 0
80 59 true 0 0 0
80 60 true 0 0 0
//80 61 true 0 0 0
//80 62 true 0 0 0
//80 63 true 0 0 0
//80 64 true 0 0 0
//80 65 true 0 0 0
//80 66 true 0 0 0
//80 67 true 0 0 0
80 68 true 0 0 0
80 69 true 0 0 0
80 70 true 0 0 0
79 70 true 0 0 0
78 70 true 0 0 0
77 70 true 0 0 0
76 70 true 0 0 0
75 70 true 0 0 0
74 70 true 0 0 0
73 70 true 0 0 0
72 70 true 0 0 0
71 70 true 0 0 0
70 70 true 0 0 0
69 70 true 0 0 0
68 70 true 0 0 0
67 70 true 0 0 0
66 70 true 0 0 0
65 70 true 0 0 0
64 70 true 0 0 0
63 70 true 0 0 0
62 70 true 0 0 0
61 70 true 0 0 0
60 70 true 0 0 0
80 90 true 0 0 0
80 100 true 0 0 0
80 110 true 0 0 0
80 120 true 0 0 0
80 130 true 0 0 0
80 140 true 0 0 0
80 150 true 0 0 0
80 158 true 0 0 0
80 1 true 0 0 0
100 1 true 0 0 0
100 2 true 0 0 0
100 3 true 0 0 0
100 4 true 0 0 0
100 5 true 0 0 0
100 6 true 0 0 0
100 7 true 0 0 0
100 8 true 0 0 0
100 9 true 0 0 0
100 10 true 0 0 0
100 11 true 0 0 0
100 12 true 0 0 0
100 13 true 0 0 0
//100 14 true 0 0 0
//100 15 true 0 0 0
//100 16 true 0 0 0
//100 17 true 0 0 0
//100 18 true 0 0 0
//100 19 true 0 0 0
100 20 true 0 0 0
100 21 true 0 0 0
100 22 true 0 0 0
100 23 true 0 0 0
100 24 true 0 0 0
100 25 true 0 0 0
100 26 true 0 0 0
100 27 true 0 0 0
100 28 true 0 0 0
100 29 true 0 0 0
100 30 true 0 0 0
100 31 true 0 0 0
100 32 true 0 0 0
100 40 true 0 0 0
100 41 true 0 0 0
100 42 true 0 0 0
100 43 true 0 0 0
100 44 true 0 0 0
100 45 true 0 0 0
100 46 true 0 0 0
100 47 true 0 0 0
100 48 true 0 0 0
100 49 true 0 0 0
100 50 true 0 0 0
100 51 true 0 0 0
100 52 true 0 0 0
100 60 true 0 0 0
100 61 true 0 0 0
100 62 true 0 0 0
100 70 true 0 0 0
100 71 true 0 0 0
100 72 true 0 0 0
100 73 true 0 0 0
100 74 true 0 0 0
100 75 true 0 0 0
100 76 true 0 0 0
100 77 true 0 0 0
100 78 true 0 0 0
100 79 true 0 0 0
100 80 true 0 0 0
100 81 true 0 0 0
100 82 true 0 0 0
100 90 true 0 0 0
99 90 true 0 0 0
98 90 true 0 0 0
97 90 true 0 0 0
96 90 true 0 0 0
95 90 true 0 0 0
94 90 true 0 0 0
93 90 true 0 0 0
92 90 true 0 0 0
91 90 true 0 0 0
90 90 true 0 0 0
89 90 true 0 0 0
88 90 true 0 0 0
87 90 true 0 0 0
86 90 true 0 0 0
85 90 true 0 0 0
84 90 true 0 0 0
83 90 true 0 0 0
82 90 true 0 0 0
81 90 true 0 0 0
80 91 true 0 0 0
80 92 true 0 0 0
80 93 true 0 0 0
80 94 true 0 0 0
80 95 true 0 0 0
80 96 true 0 0 0
80 97 true 0 0 0
80 98 true 0 0 0
80 99 true 0 0 0
80 100 true 0 0 0
80 101 true 0 0 0
80 102 true 0 0 0
80 111 true 0 0 0
80 112 true 0 0 0
80 113 true 0 0 0
80 114 true 0 0 0
80 115 true 0 0 0
80 116 true 0 0 0
80 117 true 0 0 0
80 118 true 0 0 0
80 119 true 0 0 0
80 120 true 0 0 0
80 121 true 0 0 0
80 122 true 0 0 0
80 131 true 0 0 0
80 132 true 0 0 0
80 133 true 0 0 0
80 134 true 0 0 0
80 135 true 0 0 0
80 136 true 0 0 0
80 137 true 0 0 0
80 138 true 0 0 0
80 139 true 0 0 0
80 140 true 0 0 0
80 141 true 0 0 0
80 142 true 0 0 0
80 151 true 0 0 0
80 152 true 0 0 0
60 158 true 0 0 0
80 158 true 0 0 0
//60 71 true 0 0 0
//60 72 true 0 0 0
//60 73 true 0 0 0
//60 74 true 0 0 0
//60 75 true 0 0 0
//60 76 true 0 0 0
//60 77 true 0 0 0
60 78 true 0 0 0
60 79 true 0 0 0
60 80 true 0 0 0
60 81 true 0 0 0
60 82 true 0 0 0
60 83 true 0 0 0
60 84 true 0 0 0
60 85 true 0 0 0
60 86 true 0 0 0
60 87 true 0 0 0
60 88 true 0 0 0
60 89 true 0 0 0
60 90 true 0 0 0
//60 91 true 0 0 0
//60 92 true 0 0 0
//60 93 true 0 0 0
//60 94 true 0 0 0
//60 95 true 0 0 0
//60 96 true 0 0 0
//60 97 true 0 0 0
60 98 true 0 0 0
60 99 true 0 0 0
60 100 true 0 0 0
60 101 true 0 0 0
60 102 true 0 0 0
60 103 true 0 0 0
60 104 true 0 0 0
60 105 true 0 0 0
60 106 true 0 0 0
60 107 true 0 0 0
60 108 true 0 0 0
60 109 true 0 0 0
60 110 true 0 0 0
//60 111 true 0 0 0
//60 112 true 0 0 0
//60 113 true 0 0 0
//60 114 true 0 0 0
//60 115 true 0 0 0
//60 116 true 0 0 0
//60 117 true 0 0 0
60 118 true 0 0 0
60 119 true 0 0 0
60 120 true 0 0 0
60 121 true 0 0 0
60 122 true 0 0 0
60 123 true 0 0 0
60 124 true 0 0 0
60 125 true 0 0 0
60 126 true 0 0 0
60 127 true 0 0 0
60 128 true 0 0 0
60 129 true 0 0 0
60 130 true 0 0 0
//60 131 true 0 0 0
//60 132 true 0 0 0
//60 133 true 0 0 0
//60 134 true 0 0 0
//60 135 true 0 0 0
//60 136 true 0 0 0
//60 137 true 0 0 0
60 138 true 0 0 0
60 139 true 0 0 0
60 140 true 0 0 0
60 141 true 0 0 0
60 142 true 0 0 0
60 143 true 0 0 0
60 144 true 0 0 0
60 145 true 0 0 0
60 146 true 0 0 0
60 147 true 0 0 0
60 148 true 0 0 0
60 149 true 0 0 0
60 150 true 0 0 0
60 151 true 0 0 0
60 152 true 0 0 0
//60 153 true 0 0 0
//60 154 true 0 0 0
//60 155 true 0 0 0
//60 156 true 0 0 0
//60 157 true 0 0 0
//60 158 true 0 0 0
//Room 1
1 20 true 0 0 0
2 20 true 0 0 0
3 20 true 0 0 0
4 20 true 0 0 0
5 20 true 0 0 0
6 20 true 0 0 0
7 20 true 0 0 0
8 20 true 0 0 0
9 20 true 0 0 0
10 20 true 0 0 0
11 20 true 0 0 0
12 20 true 0 0 0
13 20 true 0 0 0
14 20 true 0 0 0
15 20 true 0 0 0
16 20 true 0 0 0
17 20 true 0 0 0
18 20 true 0 0 0
19 20 true 0 0 0
20 20 true 0 0 0
21 20 true 0 0 0
22 20 true 0 0 0
23 20 true 0 0 0
24 20 true 0 0 0
25 20 true 0 0 0
26 20 true 0 0 0
27 20 true 0 0 0
28 20 true 0 0 0
29 20 true 0 0 0
30 20 true 0 0 0
31 20 true 0 0 0
32 20 true 0 0 0
33 20 true 0 0 0
34 20 true 0 0 0
35 20 true 0 0 0
36 20 true 0 0 0
37 20 true 0 0 0
38 20 true 0 0 0
39 20 true 0 0 0
40 20 true 0 0 0
41 20 true 0 0 0
42 20 true 0 0 0
43 20 true 0 0 0
44 20 true 0 0 0
45 20 true 0 0 0
46 20 true 0 0 0
47 20 true 0 0 0
48 20 true 0 0 0
49 20 true 0 0 0
50 20 true 0 0 0
51 20 true 0 0 0
52 20 true 0 0 0
53 20 true 0 0 0
54 20 true 0 0 0
55 20 true 0 0 0
56 20 true 0 0 0
57 20 true 0 0 0
58 20 true 0 0 0
59 20 true 0 0 0
60 20 true 0 0 0
61 20 true 0 0 0
62 20 true 0 0 0
63 20 true 0 0 0
64 20 true 0 0 0
65 20 true 0 0 0
66 20 true 0 0 0
67 20 true 0 0 0
68 20 true 0 0 0
69 20 true 0 0 0
70 20 true 0 0 0
71 20 true 0 0 0
72 20 true 0 0 0
73 20 true 0 0 0
74 20 true 0 0 0
75 20 true 0 0 0
76 20 true 0 0 0
77 20 true 0 0 0
78 20 true 0 0 0
79 20 true 0 0 0
//Room #2
101 20 true 0 0 0
102 20 true 0 0 0
103 20 true 0 0 0
104 20 true 0 0 0
105 20 true 0 0 0
106 20 true 0 0 0
107 20 true 0 0 0
108 20 true 0 0 0
109 20 true 0 0 0
110 20 true 0 0 0
111 20 true 0 0 0
112 20 true 0 0 0
113 20 true 0 0 0
114 20 true 0 0 0
115 20 true 0 0 0
116 20 true 0 0 0
117 20 true 0 0 0
118 20 true 0 0 0
119 20 true 0 0 0
120 20 true 0 0 0
121 20 true 0 0 0
122 20 true 0 0 0
123 20 true 0 0 0
124 20 true 0 0 0
125 20 true 0 0 0
126 20 true 0 0 0
127 20 true 0 0 0
128 20 true 0 0 0
129 20 true 0 0 0
130 20 true 0 0 0
131 20 true 0 0 0
132 20 true 0 0 0
133 20 true 0 0 0
134 20 true 0 0 0
135 20 true 0 0 0
136 20 true 0 0 0
137 20 true 0 0 0
138 20 true 0 0 0
139 20 true 0 0 0
140 20 true 0 0 0
141 20 true 0 0 0
142 20 true 0 0 0
143 20 true 0 0 0
144 20 true 0 0 0
145 20 true 0 0 0
146 20 true 0 0 0
147 20 true 0 0 0
148 20 true 0 0 0
149 20 true 0 0 0
150 20 true 0 0 0
151 20 true 0 0 0
152 20 true 0 0 0
153 20 true 0 0 0
154 20 true 0 0 0
155 20 true 0 0 0
156 20 true 0 0 0
157 20 true 0 0 0
158 20 true 0 0 0
//Room #3
1 40 true 0 0 0
2 40 true 0 0 0
3 40 true 0 0 0
4 40 true 0 0 0
5 40 true 0 0 0
6 40 true 0 0 0
7 40 true 0 0 0
8 40 true 0 0 0
9 40 true 0 0 0
10 40 true 0 0 0
11 40 true 0 0 0
12 40 true 0 0 0
13 40 true 0 0 0
14 40 true 0 0 0
15 40 true 0 0 0
16 40 true 0 0 0
17 40 true 0 0 0
18 40 true 0 0 0
19 40 true 0 0 0
20 40 true 0 0 0
21 40 true 0 0 0
22 40 true 0 0 0
23 40 true 0 0 0
24 40 true 0 0 0
25 40 true 0 0 0
26 40 true 0 0 0
27 40 true 0 0 0
28 40 true 0 0 0
29 40 true 0 0 0
30 40 true 0 0 0
31 40 true 0 0 0
32 40 true 0 0 0
33 40 true 0 0 0
34 40 true 0 0 0
35 40 true 0 0 0
36 40 true 0 0 0
37 40 true 0 0 0
38 40 true 0 0 0
39 40 true 0 0 0
40 40 true 0 0 0
41 40 true 0 0 0
42 40 true 0 0 0
43 40 true 0 0 0
44 40 true 0 0 0
45 40 true 0 0 0
46 40 true 0 0 0
47 40 true 0 0 0
48 40 true 0 0 0
49 40 true 0 0 0
50 40 true 0 0 0
51 40 true 0 0 0
52 40 true 0 0 0
53 40 true 0 0 0
54 40 true 0 0 0
55 40 true 0 0 0
56 40 true 0 0 0
57 40 true 0 0 0
58 40 true 0 0 0
59 40 true 0 0 0
60 40 true 0 0 0
61 40 true 0 0 0
62 40 true 0 0 0
63 40 true 0 0 0
64 40 true 0 0 0
65 40 true 0 0 0
66 40 true 0 0 0
67 40 true 0 0 0
68 40 true 0 0 0
69 40 true 0 0 0
70 40 true 0 0 0
71 40 true 0 0 0
72 40 true 0 0 0
73 40 true 0 0 0
74 40 true 0 0 0
75 40 true 0 0 0
76 40 true 0 0 0
77 40 true 0 0 0
78 40 true 0 0 0
79 40 true 0 0 0
1 40 true 0 0 0
2 40 true 0 0 0
3 40 true 0 0 0
4 40 true 0 0 0
5 40 true 0 0 0
6 40 true 0 0 0
7 40 true 0 0 0
8 40 true 0 0 0
9 40 true 0 0 0
10 40 true 0 0 0
//Room #4
101 40 true 0 0 0
102 40 true 0 0 0
103 40 true 0 0 0
104 40 true 0 0 0
105 40 true 0 0 0
106 40 true 0 0 0
107 40 true 0 0 0
108 40 true 0 0 0
109 40 true 0 0 0
110 40 true 0 0 0
111 40 true 0 0 0
112 40 true 0 0 0
113 40 true 0 0 0
114 40 true 0 0 0
115 40 true 0 0 0
116 40 true 0 0 0
117 40 true 0 0 0
118 40 true 0 0 0
119 40 true 0 0 0
120 40 true 0 0 0
121 40 true 0 0 0
122 40 true 0 0 0
123 40 true 0 0 0
124 40 true 0 0 0
125 40 true 0 0 0
126 40 true 0 0 0
127 40 true 0 0 0
128 40 true 0 0 0
129 40 true 0 0 0
130 40 true 0 0 0
131 40 true 0 0 0
132 40 true 0 0 0
133 40 true 0 0 0
134 40 true 0 0 0
135 40 true 0 0 0
136 40 true 0 0 0
137 40 true 0 0 0
138 40 true 0 0 0
139 40 true 0 0 0
140 40 true 0 0 0
141 40 true 0 0 0
142 40 true 0 0 0
143 40 true 0 0 0
144 40 true 0 0 0
145 40 true 0 0 0
146 40 true 0 0 0
147 40 true 0 0 0
148 40 true 0 0 0
149 40 true 0 0 0
150 40 true 0 0 0
151 40 true 0 0 0
152 40 true 0 0 0
153 40 true 0 0 0
154 40 true 0 0 0
155 40 true 0 0 0
156 40 true 0 0 0
157 40 true 0 0 0
158 40 true 0 0 0
//Room #5
1 60 true 0 0 0
2 60 true 0 0 0
3 60 true 0 0 0
4 60 true 0 0 0
5 60 true 0 0 0
6 60 true 0 0 0
7 60 true 0 0 0
8 60 true 0 0 0
9 60 true 0 0 0
10 60 true 0 0 0
11 60 true 0 0 0
12 60 true 0 0 0
13 60 true 0 0 0
14 60 true 0 0 0
15 60 true 0 0 0
16 60 true 0 0 0
17 60 true 0 0 0
18 60 true 0 0 0
19 60 true 0 0 0
20 60 true 0 0 0
21 60 true 0 0 0
22 60 true 0 0 0
23 60 true 0 0 0
24 60 true 0 0 0
25 60 true 0 0 0
26 60 true 0 0 0
27 60 true 0 0 0
28 60 true 0 0 0
29 60 true 0 0 0
30 60 true 0 0 0
31 60 true 0 0 0
32 60 true 0 0 0
33 60 true 0 0 0
34 60 true 0 0 0
35 60 true 0 0 0
36 60 true 0 0 0
37 60 true 0 0 0
38 60 true 0 0 0
39 60 true 0 0 0
40 60 true 0 0 0
41 60 true 0 0 0
42 60 true 0 0 0
43 60 true 0 0 0
44 60 true 0 0 0
45 60 true 0 0 0
46 60 true 0 0 0
47 60 true 0 0 0
48 60 true 0 0 0
49 60 true 0 0 0
50 60 true 0 0 0
51 60 true 0 0 0
52 60 true 0 0 0
53 60 true 0 0 0
54 60 true 0 0 0
55 60 true 0 0 0
56 60 true 0 0 0
57 60 true 0 0 0
58 60 true 0 0 0
59 60 true 0 0 0
60 60 true 0 0 0
61 60 true 0 0 0
62 60 true 0 0 0
63 60 true 0 0 0
64 60 true 0 0 0
65 60 true 0 0 0
66 60 true 0 0 0
67 60 true 0 0 0
68 60 true 0 0 0
69 60 true 0 0 0
70 60 true 0 0 0
71 60 true 0 0 0
72 60 true 0 0 0
73 60 true 0 0 0
74 60 true 0 0 0
75 60 true 0 0 0
76 60 true 0 0 0
77 60 true 0 0 0
78 60 true 0 0 0
79 60 true 0 0 0
//Room #6
101 60 true 0 0 0
102 60 true 0 0 0
103 60 true 0 0 0
104 60 true 0 0 0
105 60 true 0 0 0
106 60 true 0 0 0
107 60 true 0 0 0
108 60 true 0 0 0
109 60 true 0 0 0
110 60 true 0 0 0
111 60 true 0 0 0
112 60 true 0 0 0
113 60 true 0 0 0
114 60 true 0 0 0
115 60 true 0 0 0
116 60 true 0 0 0
117 60 true 0 0 0
118 60 true 0 0 0
119 60 true 0 0 0
120 60 true 0 0 0
121 60 true 0 0 0
122 60 true 0 0 0
123 60 true 0 0 0
124 60 true 0 0 0
125 60 true 0 0 0
126 60 true 0 0 0
127 60 true 0 0 0
128 60 true 0 0 0
129 60 true 0 0 0
130 60 true 0 0 0
131 60 true 0 0 0
132 60 true 0 0 0
133 60 true 0 0 0
134 60 true 0 0 0
135 60 true 0 0 0
136 60 true 0 0 0
137 60 true 0 0 0
138 60 true 0 0 0
139 60 true 0 0 0
140 60 true 0 0 0
141 60 true 0 0 0
142 60 true 0 0 0
143 60 true 0 0 0
144 60 true 0 0 0
145 60 true 0 0 0
146 60 true 0 0 0
147 60 true 0 0 0
148 60 true 0 0 0
149 60 true 0 0 0
150 60 true 0 0 0
151 60 true 0 0 0
152 60 true 0 0 0
153 60 true 0 0 0
154 60 true 0 0 0
155 60 true 0 0 0
156 60 true 0 0 0
157 60 true 0 0 0
158 60 true 0 0 0
//Bathroom #1
1 70 true 0 0 0
2 70 true 0 0 0
3 70 true 0 0 0
4 70 true 0 0 0
5 70 true 0 0 0
6 70 true 0 0 0
7 70 true 0 0 0
8 70 true 0 0 0
9 70 true 0 0 0
10 70 true 0 0 0
11 70 true 0 0 0
12 70 true 0 0 0
13 70 true 0 0 0
14 70 true 0 0 0
15 70 true 0 0 0
16 70 true 0 0 0
17 70 true 0 0 0
18 70 true 0 0 0
19 70 true 0 0 0
20 70 true 0 0 0
21 70 true 0 0 0
22 70 true 0 0 0
23 70 true 0 0 0
24 70 true 0 0 0
25 70 true 0 0 0
26 70 true 0 0 0
27 70 true 0 0 0
28 70 true 0 0 0
29 70 true 0 0 0
30 70 true 0 0 0
31 70 true 0 0 0
32 70 true 0 0 0
33 70 true 0 0 0
34 70 true 0 0 0
35 70 true 0 0 0
36 70 true 0 0 0
37 70 true 0 0 0
38 70 true 0 0 0
39 70 true 0 0 0
40 70 true 0 0 0
41 70 true 0 0 0
42 70 true 0 0 0
43 70 true 0 0 0
44 70 true 0 0 0
45 70 true 0 0 0
46 70 true 0 0 0
47 70 true 0 0 0
48 70 true 0 0 0
49 70 true 0 0 0
50 70 true 0 0 0
51 70 true 0 0 0
52 70 true 0 0 0
53 70 true 0 0 0
54 70 true 0 0 0
55 70 true 0 0 0
56 70 true 0 0 0
57 70 true 0 0 0
58 70 true 0 0 0
59 70 true 0 0 0
//Bathroom #2
101 70 true 0 0 0
102 70 true 0 0 0
103 70 true 0 0 0
104 70 true 0 0 0
105 70 true 0 0 0
106 70 true 0 0 0
107 70 true 0 0 0
108 70 true 0 0 0
109 70 true 0 0 0
110 70 true 0 0 0
111 70 true 0 0 0
112 70 true 0 0 0
113 70 true 0 0 0
114 70 true 0 0 0
115 70 true 0 0 0
116 70 true 0 0 0
117 70 true 0 0 0
118 70 true 0 0 0
119 70 true 0 0 0
120 70 true 0 0 0
121 70 true 0 0 0
122 70 true 0 0 0
123 70 true 0 0 0
124 70 true 0 0 0
125 70 true 0 0 0
126 70 true 0 0 0
127 70 true 0 0 0
128 70 true 0 0 0
129 70 true 0 0 0
130 70 true 0 0 0
131 70 true 0 0 0
132 70 true 0 0 0
133 70 true 0 0 0
134 70 true 0 0 0
135 70 true 0 0 0
136 70 true 0 0 0
137 70 true 0 0 0
138 70 true 0 0 0
139 70 true 0 0 0
140 70 true 0 0 0
141 70 true 0 0 0
142 70 true 0 0 0
143 70 true 0 0 0
144 70 true 0 0 0
145 70 true 0 0 0
146 70 true 0 0 0
147 70 true 0 0 0
148 70 true 0 0 0
149 70 true 0 0 0
150 70 true 0 0 0
151 70 true 0 0 0
152 70 true 0 0 0
153 70 true 0 0 0
154 70 true 0 0 0
155 70 true 0 0 0
156 70 true 0 0 0
157 70 true 0 0 0
158 70 true 0 0 0
//Room #9
1 90 true 0 0 0
2 90 true 0 0 0
3 90 true 0 0 0
4 90 true 0 0 0
5 90 true 0 0 0
6 90 true 0 0 0
7 90 true 0 0 0
8 90 true 0 0 0
9 90 true 0 0 0
10 90 true 0 0 0
11 90 true 0 0 0
12 90 true 0 0 0
13 90 true 0 0 0
14 90 true 0 0 0
15 90 true 0 0 0
16 90 true 0 0 0
17 90 true 0 0 0
18 90 true 0 0 0
19 90 true 0 0 0
20 90 true 0 0 0
21 90 true 0 0 0
22 90 true 0 0 0
23 90 true 0 0 0
24 90 true 0 0 0
25 90 true 0 0 0
26 90 true 0 0 0
27 90 true 0 0 0
28 90 true 0 0 0
29 90 true 0 0 0
30 90 true 0 0 0
31 90 true 0 0 0
32 90 true 0 0 0
33 90 true 0 0 0
34 90 true 0 0 0
35 90 true 0 0 0
36 90 true 0 0 0
37 90 true 0 0 0
38 90 true 0 0 0
39 90 true 0 0 0
40 90 true 0 0 0
41 90 true 0 0 0
42 90 true 0 0 0
43 90 true 0 0 0
44 90 true 0 0 0
45 90 true 0 0 0
46 90 true 0 0 0
47 90 true 0 0 0
48 90 true 0 0 0
49 90 true 0 0 0
50 90 true 0 0 0
51 90 true 0 0 0
52 90 true 0 0 0
53 90 true 0 0 0
54 90 true 0 0 0
55 90 true 0 0 0
56 90 true 0 0 0
57 90 true 0 0 0
58 90 true 0 0 0
59 90 true 0 0 0
//Room #10
101 90 true 0 0 0
102 90 true 0 0 0
103 90 true 0 0 0
104 90 true 0 0 0
105 90 true 0 0 0
106 90 true 0 0 0
107 90 true 0 0 0
108 90 true 0 0 0
109 90 true 0 0 0
110 90 true 0 0 0
111 90 true 0 0 0
112 90 true 0 0 0
113 90 true 0 0 0
114 90 true 0 0 0
115 90 true 0 0 0
116 90 true 0 0 0
117 90 true 0 0 0
118 90 true 0 0 0
119 90 true 0 0 0
120 90 true 0 0 0
121 90 true 0 0 0
122 90 true 0 0 0
123 90 true 0 0 0
124 90 true 0 0 0
125 90 true 0 0 0
126 90 true 0 0 0
127 90 true 0 0 0
128 90 true 0 0 0
129 90 true 0 0 0
130 90 true 0 0 0
131 90 true 0 0 0
132 90 true 0 0 0
133 90 true 0 0 0
134 90 true 0 0 0
135 90 true 0 0 0
136 90 true 0 0 0
137 90 true 0 0 0
138 90 true 0 0 0
139 90 true 0 0 0
140 90 true 0 0 0
141 90 true 0 0 0
142 90 true 0 0 0
143 90 true 0 0 0
144 90 true 0 0 0
145 90 true 0 0 0
146 90 true 0 0 0
147 90 true 0 0 0
148 90 true 0 0 0
149 90 true 0 0 0
150 90 true 0 0 0
151 90 true 0 0 0
152 90 true 0 0 0
153 90 true 0 0 0
154 90 true 0 0 0
155 90 true 0 0 0
156 90 true 0 0 0
157 90 true 0 0 0
158 90 true 0 0 0
//Room #11
1 110 true 0 0 0
2 110 true 0 0 0
3 110 true 0 0 0
4 110 true 0 0 0
5 110 true 0 0 0
6 110 true 0 0 0
7 110 true 0 0 0
8 110 true 0 0 0
9 110 true 0 0 0
10 110 true 0 0 0
11 110 true 0 0 0
12 110 true 0 0 0
13 110 true 0 0 0
14 110 true 0 0 0
15 110 true 0 0 0
16 110 true 0 0 0
17 110 true 0 0 0
18 110 true 0 0 0
19 110 true 0 0 0
20 110 true 0 0 0
21 110 true 0 0 0
22 110 true 0 0 0
23 110 true 0 0 0
24 110 true 0 0 0
25 110 true 0 0 0
26 110 true 0 0 0
27 110 true 0 0 0
28 110 true 0 0 0
29 110 true 0 0 0
30 110 true 0 0 0
31 110 true 0 0 0
32 110 true 0 0 0
33 110 true 0 0 0
34 110 true 0 0 0
35 110 true 0 0 0
36 110 true 0 0 0
37 110 true 0 0 0
38 110 true 0 0 0
39 110 true 0 0 0
40 110 true 0 0 0
41 110 true 0 0 0
42 110 true 0 0 0
43 110 true 0 0 0
44 110 true 0 0 0
45 110 true 0 0 0
46 110 true 0 0 0
47 110 true 0 0 0
48 110 true 0 0 0
49 110 true 0 0 0
50 110 true 0 0 0
51 110 true 0 0 0
52 110 true 0 0 0
53 110 true 0 0 0
54 110 true 0 0 0
55 110 true 0 0 0
56 110 true 0 0 0
57 110 true 0 0 0
58 110 true 0 0 0
59 110 true 0 0 0
//Room #12
81 110 true 0 0 0
82 110 true 0 0 0
83 110 true 0 0 0
84 110 true 0 0 0
85 110 true 0 0 0
86 110 true 0 0 0
87 110 true 0 0 0
88 110 true 0 0 0
89 110 true 0 0 0
90 110 true 0 0 0
91 110 true 0 0 0
92 110 true 0 0 0
93 110 true 0 0 0
94 110 true 0 0 0
95 110 true 0 0 0
96 110 true 0 0 0
97 110 true 0 0 0
98 110 true 0 0 0
99 110 true 0 0 0
100 110 true 0 0 0
101 110 true 0 0 0
102 110 true 0 0 0
103 110 true 0 0 0
104 110 true 0 0 0
105 110 true 0 0 0
106 110 true 0 0 0
107 110 true 0 0 0
108 110 true 0 0 0
109 110 true 0 0 0
110 110 true 0 0 0
111 110 true 0 0 0
112 110 true 0 0 0
113 110 true 0 0 0
114 110 true 0 0 0
115 110 true 0 0 0
116 110 true 0 0 0
117 110 true 0 0 0
118 110 true 0 0 0
119 110 true 0 0 0
120 110 true 0 0 0
121 110 true 0 0 0
122 110 true 0 0 0
123 110 true 0 0 0
124 110 true 0 0 0
125 110 true 0 0 0
126 110 true 0 0 0
127 110 true 0 0 0
128 110 true 0 0 0
129 110 true 0 0 0
130 110 true 0 0 0
131 110 true 0 0 0
132 110 true 0 0 0
133 110 true 0 0 0
134 110 true 0 0 0
135 110 true 0 0 0
136 110 true 0 0 0
137 110 true 0 0 0
138 110 true 0 0 0
139 110 true 0 0 0
140 110 true 0 0 0
141 110 true 0 0 0
142 110 true 0 0 0
143 110 true 0 0 0
144 110 true 0 0 0
145 110 true 0 0 0
146 110 true 0 0 0
147 110 true 0 0 0
148 110 true 0 0 0
149 110 true 0 0 0
150 110 true 0 0 0
151 110 true 0 0 0
152 110 true 0 0 0
153 110 true 0 0 0
154 110 true 0 0 0
155 110 true 0 0 0
156 110 true 0 0 0
157 110 true 0 0 0
158 110 true 0 0 0
//Room #13
1 130 true 0 0 0
2 130 true 0 0 0
3 130 true 0 0 0
4 130 true 0 0 0
5 130 true 0 0 0
6 130 true 0 0 0
7 130 true 0 0 0
8 130 true 0 0 0
9 130 true 0 0 0
10 130 true 0 0 0
11 130 true 0 0 0
12 130 true 0 0 0
13 130 true 0 0 0
14 130 true 0 0 0
15 130 true 0 0 0
16 130 true 0 0 0
17 130 true 0 0 0
18 130 true 0 0 0
19 130 true 0 0 0
20 130 true 0 0 0
21 130 true 0 0 0
22 130 true 0 0 0
23 130 true 0 0 0
24 130 true 0 0 0
25 130 true 0 0 0
26 130 true 0 0 0
27 130 true 0 0 0
28 130 true 0 0 0
29 130 true 0 0 0
30 130 true 0 0 0
31 130 true 0 0 0
32 130 true 0 0 0
33 130 true 0 0 0
34 130 true 0 0 0
35 130 true 0 0 0
36 130 true 0 0 0
37 130 true 0 0 0
38 130 true 0 0 0
39 130 true 0 0 0
40 130 true 0 0 0
41 130 true 0 0 0
42 130 true 0 0 0
43 130 true 0 0 0
44 130 true 0 0 0
45 130 true 0 0 0
46 130 true 0 0 0
47 130 true 0 0 0
48 130 true 0 0 0
49 130 true 0 0 0
50 130 true 0 0 0
51 130 true 0 0 0
52 130 true 0 0 0
53 130 true 0 0 0
54 130 true 0 0 0
55 130 true 0 0 0
56 130 true 0 0 0
57 130 true 0 0 0
58 130 true 0 0 0
59 130 true 0 0 0
//Room #14
81 130 true 0 0 0
82 130 true 0 0 0
83 130 true 0 0 0
84 130 true 0 0 0
85 130 true 0 0 0
86 130 true 0 0 0
87 130 true 0 0 0
88 130 true 0 0 0
89 130 true 0 0 0
90 130 true 0 0 0
91 130 true 0 0 0
92 130 true 0 0 0
93 130 true 0 0 0
94 130 true 0 0 0
95 130 true 0 0 0
96 130 true 0 0 0
97 130 true 0 0 0
98 130 true 0 0 0
99 130 true 0 0 0
100 130 true 0 0 0
101 130 true 0 0 0
102 130 true 0 0 0
103 130 true 0 0 0
104 130 true 0 0 0
105 130 true 0 0 0
106 130 true 0 0 0
107 130 true 0 0 0
108 130 true 0 0 0
109 130 true 0 0 0
110 130 true 0 0 0
111 130 true 0 0 0
112 130 true 0 0 0
113 130 true 0 0 0
114 130 true 0 0 0
115 130 true 0 0 0
116 130 true 0 0 0
117 130 true 0 0 0
118 130 true 0 0 0
119 130 true 0 0 0
120 130 true 0 0 0
121 130 true 0 0 0
122 130 true 0 0 0
123 130 true 0 0 0
124 130 true 0 0 0
125 130 true 0 0 0
126 130 true 0 0 0
127 130 true 0 0 0
128 130 true 0 0 0
129 130 true 0 0 0
130 130 true 0 0 0
131 130 true 0 0 0
132 130 true 0 0 0
133 130 true 0 0 0
134 130 true 0 0 0
135 130 true 0 0 0
136 130 true 0 0 0
137 130 true 0 0 0
138 130 true 0 0 0
139 130 true 0 0 0
140 130 true 0 0 0
141 130 true 0 0 0
142 130 true 0 0 0
143 130 true 0 0 0
144 130 true 0 0 0
145 130 true 0 0 0
146 130 true 0 0 0
147 130 true 0 0 0
148 130 true 0 0 0
149 130 true 0 0 0
150 130 true 0 0 0
151 130 true 0 0 0
152 130 true 0 0 0
153 130 true 0 0 0
154 130 true 0 0 0
155 130 true 0 0 0
156 130 true 0 0 0
157 130 true 0 0 0
158 130 true 0 0 0
//Room #15
1 150 true 0 0 0
2 150 true 0 0 0
3 150 true 0 0 0
4 150 true 0 0 0
5 150 true 0 0 0
6 150 true 0 0 0
7 150 true 0 0 0
8 150 true 0 0 0
9 150 true 0 0 0
10 150 true 0 0 0
11 150 true 0 0 0
12 150 true 0 0 0
13 150 true 0 0 0
14 150 true 0 0 0
15 150 true 0 0 0
16 150 true 0 0 0
17 150 true 0 0 0
18 150 true 0 0 0
19 150 true 0 0 0
20 150 true 0 0 0
21 150 true 0 0 0
22 150 true 0 0 0
23 150 true 0 0 0
24 150 true 0 0 0
25 150 true 0 0 0
26 150 true 0 0 0
27 150 true 0 0 0
28 150 true 0 0 0
29 150 true 0 0 0
30 150 true 0 0 0
31 150 true 0 0 0
32 150 true 0 0 0
33 150 true 0 0 0
34 150 true 0 0 0
35 150 true 0 0 0
36 150 true 0 0 0
37 150 true 0 0 0
38 150 true 0 0 0
39 150 true 0 0 0
40 150 true 0 0 0
41 150 true 0 0 0
42 150 true 0 0 0
43 150 true 0 0 0
44 150 true 0 0 0
45 150 true 0 0 0
46 150 true 0 0 0
47 150 true 0 0 0
48 150 true 0 0 0
49 150 true 0 0 0
50 150 true 0 0 0
51 150 true 0 0 0
52 150 true 0 0 0
53 150 true 0 0 0
54 150 true 0 0 0
55 150 true 0 0 0
56 150 true 0 0 0
57 150 true 0 0 0
58 150 true 0 0 0
59 150 true 0 0 0
//Room #16
81 150 true 0 0 0
82 150 true 0 0 0
83 150 true 0 0 0
84 150 true 0 0 0
85 150 true 0 0 0
86 150 true 0 0 0
87 150 true 0 0 0
88 150 true 0 0 0
89 150 true 0 0 0
90 150 true 0 0 0
91 150 true 0 0 0
92 150 true 0 0 0
93 150 true 0 0 0
94 150 true 0 0 0
95 150 true 0 0 0
96 150 true 0 0 0
97 150 true 0 0 0
98 150 true 0 0 0
99 150 true 0 0 0
100 150 true 0 0 0
101 150 true 0 0 0
102 150 true 0 0 0
103 150 true 0 0 0
104 150 true 0 0 0
105 150 true 0 0 0
106 150 true 0 0 0
107 150 true 0 0 0
108 150 true 0 0 0
109 150 true 0 0 0
110 150 true 0 0 0
111 150 true 0 0 0
112 150 true 0 0 0
113 150 true 0 0 0
114 150 true 0 0 0
115 150 true 0 0 0
116 150 true 0 0 0
117 150 true 0 0 0
118 150 true 0 0 0
119 150 true 0 0 0
120 150 true 0 0 0
121 150 true 0 0 0
122 150 true 0 0 0
123 150 true 0 0 0
124 150 true 0 0 0
125 150 true 0 0 0
126 150 true 0 0 0
127 150 true 0 0 0
128 150 true 0 0 0
129 150 true 0 0 0
130 150 true 0 0 0
131 150 true 0 0 0
132 150 true 0 0 0
133 150 true 0 0 0
134 150 true 0 0 0
135 150 true 0 0 0
136 150 true 0 0 0
137 150 true 0 0 0
138 150 true 0 0 0
139 150 true 0 0 0
140 150 true 0 0 0
141 150 true 0 0 0
142 150 true 0 0 0
143 150 true 0 0 0
144 150 true 0 0 0
145 150 true 0 0 0
146 150 true 0 0 0
147 150 true 0 0 0
148 150 true 0 0 0
149 150 true 0 0 0
150 150 true 0 0 0
151 150 true 0 0 0
152 150 true 0 0 0
153 150 true 0 0 0
154 150 true 0 0 0
155 150 true 0 0 0
156 150 true 0 0 0
157 150 true 0 0 0
158 150 true 0 0 0